{
    "relationships": [],
    "fields": [
        {
            "fieldName": "deptId",
            "fieldType": "String"
        },
        {
            "fieldName": "deptName",
            "fieldType": "String",
            "fieldValidateRules": []
        }
    ],
    "changelogDate": "20160721040425",
    "dto": "mapstruct",
    "service": "serviceImpl",
    "entityTableName": "department",
    "pagination": "pagination"
}
